Just                  [6]
They               [3, 4]
bite                  [6]
even                  [2]
feel                  [7]
lick                  [2]
lunches                  [1]
make               [3, 4]
meatloaf                  [9]
might               [3, 4]
nauseous                  [3]
school                  [1]
sick                  [4]
small                  [6]
start                  [7]
sure                  [9]
take                  [6]
vegges                  [8]
will                  [9]
